<?xml version="1.0" encoding="UTF-8" standalone="no"?>
<svg
   xmlns:dc="http://purl.org/dc/elements/1.1/"
   xmlns:cc="http://creativecommons.org/ns#"
   xmlns:rdf="http://www.w3.org/1999/02/22-rdf-syntax-ns#"
   xmlns:svg="http://www.w3.org/2000/svg"
   xmlns="http://www.w3.org/2000/svg"
   xmlns:sodipodi="http://sodipodi.sourceforge.net/DTD/sodipodi-0.dtd"
   xmlns:inkscape="http://www.inkscape.org/namespaces/inkscape"
   version="1.1"
   id="svg2"
   xml:space="preserve"
   width="5333.3335"
   height="5333.3335"
   viewBox="0 0 5333.3335 5333.3335"
   sodipodi:docname="login_banner.eps"><metadata
     id="metadata8"><rdf:RDF><cc:Work
         rdf:about=""><dc:format>image/svg+xml</dc:format><dc:type
           rdf:resource="http://purl.org/dc/dcmitype/StillImage" /></cc:Work></rdf:RDF></metadata><defs
     id="defs6" /><sodipodi:namedview
     pagecolor="#ffffff"
     bordercolor="#666666"
     borderopacity="1"
     objecttolerance="10"
     gridtolerance="10"
     guidetolerance="10"
     inkscape:pageopacity="0"
     inkscape:pageshadow="2"
     inkscape:window-width="640"
     inkscape:window-height="480"
     id="namedview4" /><g
     id="g10"
     inkscape:groupmode="layer"
     inkscape:label="ink_ext_XXXXXX"
     transform="matrix(1.3333333,0,0,-1.3333333,0,5333.3333)"><g
       id="g12"
       transform="scale(0.1)"><path
         d="M 0,0 H 40000 V 40000 H 0 Z"
         style="fill:#d2deff;fill-opacity:1;fill-rule:nonzero;stroke:none"
         id="path14" /><path
         d="m 26060.3,30885.8 c 0,0 1077.3,2476.2 1463.2,1897.3 385.9,-578.8 385.9,-1189.8 385.9,-1189.8 0,0 1350.7,4662.9 2170.7,3746.4 820,-916.5 691.4,-3971.6 691.4,-3971.6 0,0 498.5,1045.2 723.6,611.1 225.1,-434.2 128.6,-900.5 128.6,-900.5 0,0 916.5,257.3 1093.4,-192.9 h -6656.8"
         style="fill:#ffffff;fill-opacity:1;fill-rule:nonzero;stroke:none"
         id="path16" /><path
         d="m 10720,28292.9 h 2938.8 c 0,0 688.5,1905.5 244.3,1816.6 -444.3,-88.8 -1051.8,-906.8 -1051.8,-906.8 0,0 516.2,2306.2 -459.9,2039.7 -976.1,-266.6 -1671.4,-2949.5 -1671.4,-2949.5"
         style="fill:#ffffff;fill-opacity:1;fill-rule:nonzero;stroke:none"
         id="path18" /><path
         d="m 12386.2,33899.6 c 0,-861.2 -698.2,-1559.4 -1559.4,-1559.4 -861.25,0 -1559.42,698.2 -1559.42,1559.4 0,861.3 698.17,1559.4 1559.42,1559.4 861.2,0 1559.4,-698.1 1559.4,-1559.4"
         style="fill:#ffffff;fill-opacity:1;fill-rule:nonzero;stroke:none"
         id="path20" /><path
         d="m 2928.58,4847.9 v 0 24465.5 l 3581.95,3327.5 v -9966 h 1518.94 v 4150.9 H 10592.3 V 14618.2 h 2172.2 V 23923 h 3574 v 4890.6 h 3582 v -6138.7 h 1518.9 v 11915.5 h 2562.8 V 14618.2 h 2172.3 V 23923 h 3935.3 v -7699.2 h 2106.1 v 12349.4 l 2548.8,-2177.5 v -1033.9 h 464.1 V 30387 h 1481.7 V 10831.8 c 0,0 -1193,-3106.5 -4291.7,-3106.7 -628.2,0 -1334.6,127.6 -2125.5,434.8 -4218.8,1638.3 -5215.7,6983.4 -9783.1,6983.4 -512.2,0 -1068.8,-67.1 -1680.4,-214.2 -2341.9,-563.4 -4421.5,-2175.2 -6368.2,-3950.3 -626.1,506 -1323,1015.8 -2149.1,1489.5 -2453.55,1407.1 -4620.96,1688.4 -5962.42,1688.4 -894.17,0 -1421.49,-125 -1421.49,-125 V 4847.9"
         style="fill:#e3ebff;fill-opacity:1;fill-rule:nonzero;stroke:none"
         id="path22" /><path
         d="m 36710.5,4827.9 h -9455.7 c -2.2,3 -4.4,6.1 -6.7,9.3 l 9462.4,-9.3 v 6003.9 0 -6003.9"
         style="fill:#c7d7fe;fill-opacity:1;fill-rule:nonzero;stroke:none"
         id="path24" /><path
         d="m 36710.5,4827.9 -9462.4,9.3 c -351,486.7 -2230.1,2834 -5829.5,2834 -390.2,0 -801.2,-27.6 -1232.1,-88.2 -451.3,-63.4 -868.7,-93.3 -1257.8,-93.3 -2957.8,0 -4281.8,1722.7 -6467.1,3489.1 1946.7,1775.1 4026.3,3386.9 6368.2,3950.3 611.6,147.1 1168.2,214.2 1680.4,214.2 4567.4,0 5564.3,-5345.1 9783.1,-6983.4 790.9,-307.2 1497.3,-434.8 2125.5,-434.8 3098.7,0.2 4291.7,3106.7 4291.7,3106.7 V 4827.9"
         style="fill:#d0defe;fill-opacity:1;fill-rule:nonzero;stroke:none"
         id="path26" /><path
         d="M 27308.8,4749.5 H 2928.59 v 98.4 l 1020.94,-1 c -95.35,-9.6 -191.21,-16 -286.94,-19 H 27254.8 c 36,-50.4 54,-78.4 54,-78.4"
         style="fill:#c7d7fe;fill-opacity:1;fill-rule:nonzero;stroke:none"
         id="path28" /><path
         d="m 3949.53,4846.9 -1020.95,1 0.01,9183.8 c 0,0 527.32,125 1421.49,125 1341.46,0 3508.87,-281.3 5962.42,-1688.4 826.1,-473.7 1523,-983.5 2149.1,-1489.5 C 9467.03,8248.2 6787.23,5131 3949.53,4846.9"
         style="fill:#d0defe;fill-opacity:1;fill-rule:nonzero;stroke:none"
         id="path30" /><path
         d="M 27254.8,4827.9 H 3662.59 c 95.73,3 191.59,9.4 286.94,19 l 19350.97,-19 v 13.1 l 3947.6,-3.8 c 2.3,-3.2 4.5,-6.3 6.7,-9.3"
         style="fill:#c1d3fd;fill-opacity:1;fill-rule:nonzero;stroke:none"
         id="path32" /><path
         d="m 23300.5,4827.9 -19350.97,19 c 2837.7,284.1 5517.5,3401.3 8512.07,6131.9 2185.3,-1766.4 3509.3,-3489.1 6467.1,-3489.1 389.1,0 806.5,29.9 1257.8,93.3 430.9,60.6 841.9,88.2 1232.1,88.2 3599.4,0 5478.5,-2347.3 5829.5,-2834 l -3947.6,3.8 v -13.1"
         style="fill:#c5d7fd;fill-opacity:1;fill-rule:nonzero;stroke:none"
         id="path34" /><path
         d="m 23894.7,21560.3 c 0,0 -820.6,-197.7 -1148.6,-194.9 -671.5,5.7 -1183.8,419.3 -1966.2,393.2 -79.6,-271.4 554.3,-273.4 535.5,-404.5 -15.5,-108.6 -410.2,-115.4 -588.7,-43.9 -501.7,200.9 -606.1,39.4 -509.1,-108 97,-147.4 250.6,-217.9 250.6,-217.9 0,0 -198.3,-84.8 62.7,-305.1 0,0 -83.1,-174.9 200.4,-319.2 283.6,-144.2 21.1,-222.7 1268.3,-309.8 1247.1,-87 2012.4,-141.8 1999.2,-98.4 -13.2,43.5 -104.1,1608.5 -104.1,1608.5"
         style="fill:#f7a6cc;fill-opacity:1;fill-rule:nonzero;stroke:none"
         id="path36" /><path
         d="m 29421.9,24261 c 0,0 994.6,-1027.1 80.8,-2191.8 -602.1,-767.3 -1282.2,-1925.9 -2006.1,-2383 -183.2,-115.7 -3755.1,-197.7 -4080.6,-197.7 -21.3,864.6 -98.2,2185.8 -98.2,2185.8 0,0 2479.3,1.4 3137.6,31.1 1583.5,1902.7 2310.1,3062.3 2966.5,2555.6"
         style="fill:#47d5b8;fill-opacity:1;fill-rule:nonzero;stroke:none"
         id="path38" /><path
         d="m 27182.5,6083.7 38.2,479.5 h 2290.6 l -106.9,-625.6 c 0,0 -370.3,-860.5 -410,-853.2 -39.7,7.4 -1878,113.2 -1878,113.2 l 66.1,886.1"
         style="fill:#f7a6cc;fill-opacity:1;fill-rule:nonzero;stroke:none"
         id="path40" /><path
         d="m 29219.2,4725.3 h -3941.1 c 168.6,330.4 256.8,597.9 1253.1,809.5 l 651.3,520.2 c 0,0 353.3,-410.3 936.3,-478.9 875.6,-103.1 1285.6,332.8 1285.6,332.8 l -185.2,-1183.6"
         style="fill:#13139e;fill-opacity:1;fill-rule:nonzero;stroke:none"
         id="path42" /><path
         d="m 30502.9,6055 38.2,479.5 h 2290.5 l -106.9,-625.6 c 0,0 -370.3,-860.5 -410,-853.2 -39.6,7.4 -1878,113.2 -1878,113.2 l 66.2,886.1"
         style="fill:#f7a6cc;fill-opacity:1;fill-rule:nonzero;stroke:none"
         id="path44" /><path
         d="m 32558.4,4725.3 h -3960 c 168.7,330.4 256.8,597.9 1253.1,809.5 l 651.4,520.2 c 0,0 353.3,-410.3 936.2,-478.9 875.6,-103.1 1285.6,332.8 1285.6,332.8 l -166.3,-1183.6"
         style="fill:#2e26af;fill-opacity:1;fill-rule:nonzero;stroke:none"
         id="path46" /><path
         d="m 29404.4,19704.1 c 0,0 -1889.7,-5327.1 -1901.5,-6289.4 -8.4,-691.5 -386.9,-6851.5 -386.9,-6851.5 h 2395.3 l 832.5,5952.4 1703.6,4525.6 c 1432.7,628.3 1798.3,2197.8 905.8,2662.9 h -3548.8"
         style="fill:#faae00;fill-opacity:1;fill-rule:nonzero;stroke:none"
         id="path48" /><path
         d="m 30656.7,19704.1 c 0,0 -618,-5210 -629.7,-6172.3 -8.5,-691.6 409.4,-6997.3 409.4,-6997.3 h 2395.2 l 81.6,6105.2 563.5,4324.4 c 588.1,1289.4 529.8,1969.7 317.4,2740 h -3137.4"
         style="fill:#faae00;fill-opacity:1;fill-rule:nonzero;stroke:none"
         id="path50" /><path
         d="m 31751.9,6509.4 c -12.8,0 -23.7,9.6 -25,22.6 l -642.5,6287.3 c -99.2,937.8 24.5,1652.1 145.8,2086.2 125.7,449.7 270.9,694 289.7,724.6 l 894.6,2939.2 c 4,13.3 18.2,20.8 31.4,16.7 13.3,-4 20.7,-18.1 16.7,-31.4 L 31567,15612.3 c -0.6,-2.1 -1.6,-4.2 -2.8,-6.1 -6.1,-9.8 -617.8,-1004.5 -429.7,-2781.7 l 642.4,-6287.4 c 1.4,-13.9 -8.6,-26.2 -22.4,-27.6 l -2.6,-0.1"
         style="fill:#ffffff;fill-opacity:1;fill-rule:nonzero;stroke:none"
         id="path52" /><path
         d="m 28311.1,6538.1 h -1.3 c -13.9,0.7 -24.6,12.5 -23.9,26.3 l 269.8,5502.8 c 118.9,1249.5 537.3,2217.1 541.5,2226.7 l 1.2,2.4 1044,1840.9 c 6.9,12.1 22.2,16.4 34.3,9.5 12.1,-6.9 16.3,-22.2 9.4,-34.3 l -1043.3,-1839.8 c -16.7,-38.7 -420.7,-988.6 -537,-2209 L 28336.2,6562 c -0.7,-13.5 -11.8,-23.9 -25.1,-23.9"
         style="fill:#ffffff;fill-opacity:1;fill-rule:nonzero;stroke:none"
         id="path54" /><path
         d="m 29511.3,6538.1 h -2290.6 c -13.9,0 -25.2,11.2 -25.2,25.1 0,13.9 11.3,25.2 25.2,25.2 h 2290.6 c 13.9,0 25.1,-11.3 25.1,-25.2 0,-13.9 -11.2,-25.1 -25.1,-25.1"
         style="fill:#dd4b9b;fill-opacity:1;fill-rule:nonzero;stroke:none"
         id="path56" /><path
         d="m 32831.6,6509.4 h -2290.5 c -13.9,0 -25.2,11.2 -25.2,25.1 0,13.9 11.3,25.2 25.2,25.2 h 2290.5 c 13.9,0 25.2,-11.3 25.2,-25.2 0,-13.9 -11.3,-25.1 -25.2,-25.1"
         style="fill:#dd4b9b;fill-opacity:1;fill-rule:nonzero;stroke:none"
         id="path58" /><path
         d="m 28667.1,18578.2 c 0,0 765.6,-501.2 2365.4,-258.3 2009.8,305.2 2444.2,1254.4 2444.2,1254.4 l -1264.8,2328.1 c -556.7,2805.1 -884.4,3209.2 -1855.8,3129.3 l -389.8,-32 c -971.3,-79.9 -1439,-929.4 -1299.2,-1888.7 68.5,-469.5 292.5,-1766.5 292.5,-1766.5 l -292.5,-2766.3"
         style="fill:#13139e;fill-opacity:1;fill-rule:nonzero;stroke:none"
         id="path60" /><path
         d="m 30355.2,25797.2 c 16.9,-238.2 80,-667.4 248.3,-820.6 82.4,-136.9 -703.8,-707.2 -1028.4,-809.6 -173.3,383.8 -169.2,617.8 -133.2,733.2 0,0 186.2,497.4 113.8,810 l 799.5,87"
         style="fill:#ef92c1;fill-opacity:1;fill-rule:nonzero;stroke:none"
         id="path62" /><path
         d="m 29009.7,26667.2 c 0,0 0.8,-207.6 -1.3,-420.7 -1.6,-156.5 -9.6,-306.6 3.5,-427 36.3,-333.2 134.3,-567.7 355.6,-719.2 373.2,-39.7 1032,292.9 1172.9,548.5 141,255.6 36.5,576.6 59.5,983.3 14.2,253.2 -476.5,255.7 -476.5,255.7 -148.6,162.3 -986.1,425.1 -1113.7,-220.6"
         style="fill:#f7a6cc;fill-opacity:1;fill-rule:nonzero;stroke:none"
         id="path64" /><path
         d="m 30501.8,26592.6 c -74.7,82.6 -280,123.3 -366.6,-276.4 -95.9,-19.7 -175.8,270.3 -175.9,636.5 -227.5,108.3 -942.3,-497.6 -1196.8,-267.5 -517.4,542.7 -113.7,944.1 424.1,1037.1 775.7,134.2 1412.9,84 1708.2,-217.2 275.8,-281.2 177.5,-674.2 -44.4,-1201.2 -122.9,-291.9 -207.5,-666 -336,-650.4 -84.1,10.1 -143.8,102.4 -128.8,360.2 8.6,147.4 346.6,324.2 116.2,578.9"
         style="fill:#a5a8a7;fill-opacity:1;fill-rule:nonzero;stroke:none"
         id="path66" /><path
         d="m 30310.1,26276.7 c -2.8,0 -5.8,0.5 -8.6,1.6 -13.1,4.7 -19.8,19.2 -15,32.2 l 86.9,237.2 c 4.7,13.1 19.2,19.7 32.2,15 13.1,-4.8 19.8,-19.2 15,-32.3 l -86.8,-237.2 c -3.8,-10.2 -13.4,-16.5 -23.7,-16.5"
         style="fill:#dd4b9b;fill-opacity:1;fill-rule:nonzero;stroke:none"
         id="path68" /><path
         d="m 30398.3,18223.5 c -814.4,0 -1440.8,163.5 -1447.3,165.2 -17.9,4.8 -28.6,23.2 -23.8,41.1 4.7,17.9 23.1,28.5 41,23.8 6.8,-1.8 688.3,-179.6 1552.3,-161.8 794.5,16.4 1910.5,206.5 2715,1018.9 13,13.1 34.3,13.2 47.4,0.2 13.2,-13.1 13.3,-34.3 0.3,-47.5 -362.8,-366.2 -816.7,-640.1 -1349.1,-813.9 -425.1,-138.7 -900.8,-214.3 -1414.1,-224.8 -40.9,-0.8 -81.6,-1.2 -121.7,-1.2"
         style="fill:#ea9206;fill-opacity:1;fill-rule:nonzero;stroke:none"
         id="path70" /><path
         d="m 30153.4,10970 c -16.8,0 -31.3,12.5 -33.3,29.6 l -304.7,2552.4 c -6.2,35.8 -98.7,608.6 178.6,1553.7 l 411.2,2707.6 c 2.8,18.3 19.9,30.9 38.2,28.1 18.4,-2.8 31,-19.9 28.2,-38.2 L 30060,15093.4 c -0.2,-1.5 -0.5,-3 -1,-4.4 -276.3,-940.2 -178.4,-1520.4 -177.4,-1526.2 l 0.3,-1.9 304.8,-2553.4 c 2.2,-18.4 -10.9,-35.1 -29.3,-37.3 -1.4,-0.1 -2.7,-0.2 -4,-0.2"
         style="fill:#ea9206;fill-opacity:1;fill-rule:nonzero;stroke:none"
         id="path72" /><path
         d="m 29771.1,19787.6 c 0,0 -553.8,-661.8 -855.4,-790.9 -235.1,-100.7 -1445.9,-598.4 -1935.5,-762.1 46.8,-200.6 211.1,-247.9 718.4,-119 46.4,-99.4 -255.4,-231.1 -443.9,-268.8 -530,-105.9 -529.2,-298.2 -367.4,-368.6 161.8,-70.5 329.1,-45.6 329.1,-45.6 0,0 -119.8,-179.3 219.2,-221.2 0,0 25.9,-191.9 342.3,-157.7 316.3,34.1 139.3,-175.1 1231.3,433.6 1092,608.7 1762.9,981 1728.1,1010.2 -34.8,29.2 -966.2,1290.1 -966.2,1290.1"
         style="fill:#f7a6cc;fill-opacity:1;fill-rule:nonzero;stroke:none"
         id="path74" /><path
         d="m 30971.9,24829.4 c 877.8,268.2 2053.5,-644.1 3204.8,-2149.5 1075.2,-1406 1275.4,-2130.9 345.2,-2711.1 l -4662,-2309.2 -1000.8,1922 3206.3,1806.2 c -1189,725.4 -2647.6,2966.7 -1093.5,3441.6"
         style="fill:#47d5b8;fill-opacity:1;fill-rule:nonzero;stroke:none"
         id="path76" /><path
         d="m 28598.4,4683.3 c -5.1,0 -10.2,1 -15.2,2.9 -21.6,8.4 -32.3,32.8 -23.8,54.3 222.4,570.2 735.5,696.6 771.5,690.5 l -7.7,-41.3 7.8,-41.1 c -4.8,-1 -483.5,-100.4 -693.5,-638.6 -6.5,-16.5 -22.3,-26.7 -39.1,-26.7"
         style="fill:#080867;fill-opacity:1;fill-rule:nonzero;stroke:none"
         id="path78" /><path
         d="m 29782.5,17783.1 c -9.1,0 -17.9,4.9 -22.3,13.5 l -680.1,1306.1 c -6.4,12.3 -1.6,27.5 10.7,34 12.3,6.4 27.5,1.6 33.9,-10.7 l 680.1,-1306.1 c 6.4,-12.4 1.6,-27.6 -10.7,-34 -3.7,-1.9 -7.7,-2.8 -11.6,-2.8"
         style="fill:#dd4b9b;fill-opacity:1;fill-rule:nonzero;stroke:none"
         id="path80" /><path
         d="m 27905.3,17030 c -8.9,0 -17.6,4.8 -22.1,13.2 -6.6,12.2 -2.1,27.5 10.1,34.1 l 622.1,337.2 c 12.2,6.6 27.5,2.2 34.1,-10.1 6.7,-12.2 2.1,-27.5 -10.1,-34.1 l -622.1,-337.3 c -3.8,-2 -7.9,-3 -12,-3"
         style="fill:#dd4b9b;fill-opacity:1;fill-rule:nonzero;stroke:none"
         id="path82" /><path
         d="m 27435.6,17186.3 c -10.1,0 -19.6,6.1 -23.5,16 -5,13 1.4,27.6 14.4,32.6 6.3,2.5 643.4,250.8 972.9,446.3 11.9,7.1 27.4,3.2 34.5,-8.8 7,-11.9 3.1,-27.3 -8.8,-34.4 -333.1,-197.7 -974,-447.5 -980.4,-450 -3,-1.2 -6.1,-1.7 -9.1,-1.7"
         style="fill:#dd4b9b;fill-opacity:1;fill-rule:nonzero;stroke:none"
         id="path84" /><path
         d="m 27216.4,17407.5 c -10,0 -19.4,5.9 -23.4,15.8 -5.1,12.9 1.1,27.5 14,32.7 6.3,2.5 635.4,255.1 819.8,373.4 11.6,7.5 27.2,4.1 34.7,-7.6 7.5,-11.7 4.1,-27.2 -7.6,-34.7 -188.3,-121 -802.1,-367.4 -828.2,-377.8 -3,-1.3 -6.2,-1.8 -9.3,-1.8"
         style="fill:#dd4b9b;fill-opacity:1;fill-rule:nonzero;stroke:none"
         id="path86" /><path
         d="m 21529.8,20633.4 c -4,0 -8,1 -11.8,3 -234.9,124.3 -420.3,601.2 -428,621.4 -5,13 1.4,27.5 14.4,32.5 13,5 27.5,-1.5 32.5,-14.4 1.9,-4.8 186.3,-479.5 404.6,-595.1 12.3,-6.5 17,-21.7 10.5,-34 -4.5,-8.5 -13.2,-13.4 -22.2,-13.4"
         style="fill:#dd4b9b;fill-opacity:1;fill-rule:nonzero;stroke:none"
         id="path88" /><path
         d="m 20932.4,20930.1 h -1.6 l -464.1,29.1 c -13.9,0.8 -24.4,12.8 -23.6,26.6 0.9,13.9 12.6,24.5 26.7,23.6 l 464.1,-29.1 c 13.9,-0.8 24.4,-12.8 23.6,-26.6 -0.9,-13.4 -12,-23.6 -25.1,-23.6"
         style="fill:#dd4b9b;fill-opacity:1;fill-rule:nonzero;stroke:none"
         id="path90" /><path
         d="m 20675.3,20653.6 c -89,0 -143,0.5 -144.6,0.5 -13.9,0.1 -25.1,11.5 -24.9,25.4 0.1,13.8 11.3,24.9 25.1,24.9 h 0.2 c 4.7,-0.1 470.3,-4 941.4,11.8 13.8,0.2 25.6,-10.4 26,-24.3 0.5,-13.8 -10.4,-25.5 -24.2,-25.9 -313.2,-10.6 -623.9,-12.4 -799,-12.4"
         style="fill:#dd4b9b;fill-opacity:1;fill-rule:nonzero;stroke:none"
         id="path92" /><path
         d="m 30369.3,17886.8 c -9.2,0 -18.1,5.1 -22.5,13.9 l -980.6,1968 c -6.2,12.4 -1.2,27.5 11.3,33.7 12.4,6.2 27.5,1.2 33.7,-11.3 l 980.6,-1967.9 c 6.2,-12.5 1.2,-27.6 -11.3,-33.8 -3.6,-1.8 -7.4,-2.6 -11.2,-2.6"
         style="fill:#ffffff;fill-opacity:1;fill-rule:nonzero;stroke:none"
         id="path94" /><path
         d="m 24063.8,19463.4 c -13.6,0 -24.8,10.8 -25.1,24.5 l -58.1,2187.3 c -0.3,13.9 10.6,25.4 24.5,25.8 13.3,0.7 25.4,-10.6 25.8,-24.5 l 58,-2187.3 c 0.4,-13.9 -10.5,-25.4 -24.4,-25.8 h -0.7"
         style="fill:#ffffff;fill-opacity:1;fill-rule:nonzero;stroke:none"
         id="path96" /><path
         d="m 30397,26088.9 h -308 c 0,0 -223.9,-21 -285.9,-247.3 l -791.2,-22.1 c 0,0 -67.5,-598.7 355.6,-719.2 0,0 573.6,-96.4 1202.7,552.7 80.1,82.7 -22,282.1 -173.2,435.9"
         style="fill:#a5a8a7;fill-opacity:1;fill-rule:nonzero;stroke:none"
         id="path98" /><path
         d="m 20787.7,20302.9 c -12.6,0 -23.5,9.4 -25,22.2 -1.6,13.8 8.3,26.3 22.1,27.9 l 573.9,68.1 c 13.7,1.7 26.3,-8.2 27.9,-22 1.7,-13.8 -8.2,-26.3 -22,-27.9 l -573.9,-68.1 c -1,-0.1 -2,-0.2 -3,-0.2"
         style="fill:#dd4b9b;fill-opacity:1;fill-rule:nonzero;stroke:none"
         id="path100" /><path
         d="m 16967.4,24161.4 c 288.3,-1523 230.7,-2812.8 -128.6,-2880.8 -359.3,-68 -884.4,1111.5 -1172.7,2634.5 -288.3,1523 -230.7,2812.8 128.6,2880.8 359.4,68 884.4,-1111.5 1172.7,-2634.5"
         style="fill:#f2bc86;fill-opacity:1;fill-rule:nonzero;stroke:none"
         id="path102" /><path
         d="m 17638.8,24536.5 c -64.6,-1548.7 -413.3,-2791.8 -778.7,-2776.5 -365.4,15.2 -609.2,1283.1 -544.5,2831.8 64.7,1548.7 413.3,2791.8 778.7,2776.5 365.4,-15.3 609.2,-1283.1 544.5,-2831.8"
         style="fill:#f9c995;fill-opacity:1;fill-rule:nonzero;stroke:none"
         id="path104" /><path
         d="m 18907.3,22903.5 h -1843.2 v 2893.7 h 1843.2 v -2893.7"
         style="fill:#47d5b8;fill-opacity:1;fill-rule:nonzero;stroke:none"
         id="path106" /><path
         d="m 19686.9,22903.5 h -779.6 v 2893.7 h 779.6 v -2893.7"
         style="fill:#0caf88;fill-opacity:1;fill-rule:nonzero;stroke:none"
         id="path108" /><path
         d="m 20133.8,17808.2 h -4296.2 l 317.8,6571.9 h 3691.4 l 287,-6571.9"
         style="fill:#f9c995;fill-opacity:1;fill-rule:nonzero;stroke:none"
         id="path110" /><path
         d="m 14323.9,19261.3 c 0,0 558,-474.1 828.7,-538.9 246.7,-59 1121.4,-46.9 1511.9,-154.4 244.3,-42.9 42.2,-267.2 -320,-351.1 31.3,-107.9 639.2,-346.2 1091.6,-420.6 452.5,-74.3 485.3,-173.5 360.1,-255.6 -125.2,-82.1 -268.6,-85.3 -268.6,-85.3 0,0 125.8,-132.8 -151.6,-216.3 0,0 5.7,-164.3 -263.7,-181 -269.4,-16.8 -821.2,36.2 -1821.6,388.7 -1000.4,352.6 -1676.2,704.2 -1651.3,733.6 25,29.4 684.5,1080.9 684.5,1080.9"
         style="fill:#f7a6cc;fill-opacity:1;fill-rule:nonzero;stroke:none"
         id="path112" /><path
         d="m 9686.44,25503.1 c -863.07,-1.8 -357.05,-1641 -707.95,-3300.1 -348.06,-1645.7 192.05,-2208.6 1065.71,-2755.9 l 4269.5,-2124.4 944.3,1805.6 -4029,2675.6 c 93,2103.7 -549.7,3701.3 -1542.56,3699.2"
         style="fill:#0caf88;fill-opacity:1;fill-rule:nonzero;stroke:none"
         id="path114" /><path
         d="M 19503.2,17808.2 H 15207 l 317.8,6571.9 h 3691.4 l 287,-6571.9"
         style="fill:#ffe6c7;fill-opacity:1;fill-rule:nonzero;stroke:none"
         id="path116" /><path
         d="m 8273.42,28186.6 c 0,0 -1010.57,-1308.2 -1063.54,-2683.5 l 3114.32,57.9 c 0,0 -693.87,1367.3 -820.99,1889.9 l -1229.79,735.7"
         style="fill:#993f00;fill-opacity:1;fill-rule:nonzero;stroke:none"
         id="path118" /><path
         d="m 12578.1,6159.4 -40.5,243 h -2381.9 l 66.6,-397.9 c 0,0 392.6,-912.4 434.7,-904.6 42,7.8 1991.2,120 1991.2,120 l -70.1,939.5"
         style="fill:#f7a6cc;fill-opacity:1;fill-rule:nonzero;stroke:none"
         id="path120" /><path
         d="m 10757.1,20335.8 c 0,0 409.6,-822.7 420.3,-1555.9 10.7,-733.2 1530.1,-12377.5 1530.1,-12377.5 H 9630.47 L 8200.58,19283.3 c 0,534 -1477.87,908 -1022.92,1052.5 h 3579.44"
         style="fill:#2c2cdb;fill-opacity:1;fill-rule:nonzero;stroke:none"
         id="path122" /><path
         d="m 7713.25,6159.4 -40.49,243 H 5357.69 l -0.27,-397.9 c 0,0 392.64,-912.4 434.7,-904.6 42.07,7.8 1991.24,120 1991.24,120 l -70.11,939.5"
         style="fill:#f7a6cc;fill-opacity:1;fill-rule:nonzero;stroke:none"
         id="path124" /><path
         d="M 10194.3,20335.8 8360.64,6402.4 H 5054.51 c 0,0 1429.89,13788.9 1884.84,13933.4 h 3254.95"
         style="fill:#2c2cdb;fill-opacity:1;fill-rule:nonzero;stroke:none"
         id="path126" /><path
         d="m 5310.27,4749.5 h 536.68 l 120.05,294.2 454.12,-294.2 h 3311.42 c -178.79,350.3 -272.28,633.9 -1328.67,858.3 l -690.62,551.6 c 0,0 -374.61,-435 -992.71,-507.8 -928.42,-109.2 -1363.12,352.9 -1363.12,352.9 l -47.15,-1255"
         style="fill:#2c2cdb;fill-opacity:1;fill-rule:nonzero;stroke:none"
         id="path128" /><path
         d="m 10175,4749.5 h 536.7 l 120.1,294.2 454.1,-294.2 h 3311.4 c -178.8,350.3 -272.3,633.9 -1328.6,858.3 l -690.7,551.6 c 0,0 -374.6,-435 -992.7,-507.8 -928.4,-109.2 -1363.1,352.9 -1363.1,352.9 l -47.2,-1255"
         style="fill:#2c2cdb;fill-opacity:1;fill-rule:nonzero;stroke:none"
         id="path130" /><path
         d="m 9844.88,26930 c -41.94,-135.3 -146.88,-222.9 -234.38,-195.8 -87.51,27.1 -124.45,158.8 -82.5,294 41.94,135.3 146.88,222.9 234.39,195.8 87.5,-27.2 124.44,-158.8 82.49,-294"
         style="fill:#f7a6cc;fill-opacity:1;fill-rule:nonzero;stroke:none"
         id="path132" /><path
         d="M 11322,19404.6 H 6421.12 l 476.75,4421.7 c 0,988.7 801.48,1790.2 1790.17,1790.2 h 396.75 c 988.71,0 1573.01,-797.1 1573.01,-1785.8 l -116.9,-1883 781.1,-2543.1"
         style="fill:#47d5b8;fill-opacity:1;fill-rule:nonzero;stroke:none"
         id="path134" /><path
         d="m 8554.17,26403.9 c 9.12,-242 -21.44,-642.9 -174.38,-815.9 58.85,-269.8 549.74,-701.1 1013.71,-870 111.48,381.3 35.57,769.2 -13.31,881.6 0,0 -242.44,481.1 -203.74,804.3 h -622.28"
         style="fill:#ef92c1;fill-opacity:1;fill-rule:nonzero;stroke:none"
         id="path136" /><path
         d="m 9622.08,27429 68.53,-969.1 c 0,0 -4.17,-327.8 -390.44,-375.4 -334.13,-41.2 -671.65,-29.8 -744.57,229 -61.67,218.8 -57.36,422.3 -57.36,422.3 -170.16,-25.3 -420.4,122.3 -296.59,390.9 107.68,233.7 284.76,-14.4 284.76,-14.4 l -11.65,417 c 132.01,179.9 947.76,536.8 1147.32,-100.3"
         style="fill:#f7a6cc;fill-opacity:1;fill-rule:nonzero;stroke:none"
         id="path138" /><path
         d="m 8537.92,27287 c 0,0 66.12,120.3 117.88,354.6 0,0 296.59,-74.2 273.73,-397.2 457.16,-15.9 525.81,-19.5 761.08,40.6 287.51,507.6 273.39,1119.3 -239.44,1225.2 -396.74,81.9 -737.12,-42.4 -737.12,-42.4 0,0 -149.48,-5.1 -353.41,-158.9 -222.1,-167.5 -216.28,-575.9 19.53,-998.8 60.46,-108.4 73.95,-203.2 118.84,-331 l 38.91,307.9"
         style="fill:#b55100;fill-opacity:1;fill-rule:nonzero;stroke:none"
         id="path140" /><path
         d="m 9410.29,27547.5 c -332.59,0 -627.81,139.1 -867.98,359.5 -105.74,97.1 -185.14,215 -242.18,343.5 -157.9,-192.4 -131.81,-560.5 80.04,-940.4 60.46,-108.4 73.95,-203.2 118.84,-331 l 38.91,307.9 c 0,0 66.12,120.3 117.88,354.6 0,0 296.59,-74.2 273.74,-397.2 457.15,-15.9 525.8,-19.5 761.07,40.6 62.84,110.9 111.27,226.9 143.23,341.4 -136.89,-50.9 -281.79,-78.9 -423.55,-78.9"
         style="fill:#993f00;fill-opacity:1;fill-rule:nonzero;stroke:none"
         id="path142" /><path
         d="m 8459.79,26822.4 c -7.07,0 -14.11,2.9 -19.08,8.7 l -171.21,199.1 c -9.06,10.6 -7.86,26.5 2.67,35.5 10.54,9.1 26.43,7.9 35.47,-2.6 l 171.22,-199.2 c 9.06,-10.5 7.86,-26.4 -2.67,-35.5 -4.75,-4 -10.59,-6 -16.4,-6"
         style="fill:#dd4b9b;fill-opacity:1;fill-rule:nonzero;stroke:none"
         id="path144" /><path
         d="m 11210.1,6377.3 c -12.2,0 -22.9,8.9 -24.8,21.4 L 9658.68,16450.9 c -2.09,13.7 7.36,26.6 21.1,28.6 13.67,2 26.56,-7.3 28.64,-21.1 L 11235,6406.2 c 2.1,-13.7 -7.3,-26.6 -21.1,-28.6 -1.2,-0.2 -2.5,-0.3 -3.8,-0.3"
         style="fill:#ffffff;fill-opacity:1;fill-rule:nonzero;stroke:none"
         id="path146" /><path
         d="m 6421.15,6377.3 c -1.17,0 -2.36,0.1 -3.55,0.2 -13.76,2 -23.34,14.7 -21.39,28.5 4.56,32.3 462.37,3274.5 927.76,6481.4 273.35,1883.6 495.78,3386.6 661.13,4467.3 98.18,641.7 177.07,1139.8 234.48,1480.3 97.3,577.3 111.25,583.9 128.91,592.4 7.58,3.6 17.85,3.2 25.07,-1.2 11.92,-7.1 15.8,-22.6 8.66,-34.5 -1.49,-2.5 -3.35,-4.6 -5.47,-6.4 -116.15,-276.4 -1311.55,-8600 -1930.72,-12986.4 -1.78,-12.6 -12.55,-21.6 -24.88,-21.6"
         style="fill:#ffffff;fill-opacity:1;fill-rule:nonzero;stroke:none"
         id="path148" /><path
         d="m 13612.2,22328.9 c 0,0 731.2,39.9 972.1,179.2 219.7,127 846,737.6 1203.3,928.4 206.8,137 214.5,-164.9 9.4,-475.1 97,-56.7 230.1,-72.8 568.6,167.7 268.3,190.6 384.8,144.7 409.5,7 26.5,-147.3 -67.5,-232.6 -67.5,-232.6 0,0 182.8,-9.7 38.9,-261.3 0,0 117.3,-115.2 -66.7,-312.7 -183.9,-197.6 -149,-219.3 -1117.5,-651.9 -968.5,-432.7 -1700.8,-642.6 -1702.9,-604.1 -2.1,38.5 -247.2,1255.4 -247.2,1255.4"
         style="fill:#f7a6cc;fill-opacity:1;fill-rule:nonzero;stroke:none"
         id="path150" /><path
         d="m 7517.36,24992.2 c -755.72,-416.8 -615.56,-1676.4 8.91,-3253.1 619.43,-1563.9 1380.67,-1734.5 2411.24,-1707.8 l 4732.29,589 -210.8,2026.7 -4627.97,-72.3 c -581.98,1765 -1159.76,3054.1 -2313.67,2417.5"
         style="fill:#47d5b8;fill-opacity:1;fill-rule:nonzero;stroke:none"
         id="path152" /><path
         d="m 10580.5,22552.8 h -749.48 c -14.88,0 -27.98,9.9 -32.19,24.1 -5.63,19.2 -568.91,1920.6 -1049.54,2219.8 -15.73,9.8 -20.54,30.5 -10.75,46.2 9.79,15.7 30.48,20.6 46.21,10.8 477.6,-297.4 1001.15,-1999.6 1071.29,-2233.8 h 724.46 c 18.6,0 33.6,-15 33.6,-33.5 0,-18.5 -15,-33.6 -33.6,-33.6"
         style="fill:#0caf88;fill-opacity:1;fill-rule:nonzero;stroke:none"
         id="path154" /><path
         d="m 9831.02,22552.8 h -379.85 c -18.52,0 -33.54,15.1 -33.54,33.6 0,18.5 15.02,33.5 33.54,33.5 h 379.85 c 18.53,0 33.55,-15 33.55,-33.5 0,-18.5 -15.02,-33.6 -33.55,-33.6"
         style="fill:#0caf88;fill-opacity:1;fill-rule:nonzero;stroke:none"
         id="path156" /><path
         d="m 9704.15,19981.5 c -132.87,0 -312.41,13.3 -516.71,63.6 -391.64,96.4 -949.44,353.5 -1382.73,1031 -1.13,1.7 -2.08,3.6 -2.86,5.5 l -742.29,1844.3 c -6.91,17.2 1.41,36.7 18.6,43.6 17.18,6.9 36.72,-1.4 43.64,-18.6 l 741.11,-1841.3 c 420.31,-655.6 959.26,-904.9 1337.6,-998.6 411.51,-101.9 727.93,-47.3 731.07,-46.7 l 1.79,0.3 1148.13,142.9 c 18.4,2.3 35.2,-10.8 37.4,-29.2 2.3,-18.3 -10.7,-35.1 -29.1,-37.4 l -1147.28,-142.8 c -11.9,-2.1 -99.72,-16.6 -238.37,-16.6"
         style="fill:#0caf88;fill-opacity:1;fill-rule:nonzero;stroke:none"
         id="path158" /><path
         d="m 13932.7,20503.4 c -13.1,0 -24.1,10.1 -25.1,23.4 l -147.5,2107.9 c -1,13.9 9.5,25.9 23.3,26.9 13.9,1.2 25.9,-9.5 26.9,-23.3 l 147.5,-2108 c 1,-13.8 -9.4,-25.9 -23.3,-26.8 l -1.8,-0.1"
         style="fill:#ffffff;fill-opacity:1;fill-rule:nonzero;stroke:none"
         id="path160" /><path
         d="m 9049.51,11594.5 c -1.6,0 -3.22,0.1 -4.85,0.3 -23,2.6 -39.51,23.4 -36.86,46.4 l 641.16,5575 c 2.63,23 23.3,39.7 46.44,36.9 23,-2.7 39.51,-23.5 36.86,-46.5 l -641.15,-5574.9 c -2.46,-21.4 -20.59,-37.2 -41.6,-37.2"
         style="fill:#080867;fill-opacity:1;fill-rule:nonzero;stroke:none"
         id="path162" /><path
         d="m 13785.2,17560.5 c -3.7,0 -7.5,0.8 -11,2.5 -12.5,6.1 -17.7,21.1 -11.6,33.6 l 926.5,1905.5 c 6.1,12.5 21.2,17.7 33.6,11.6 12.5,-6.1 17.7,-21.1 11.7,-33.6 l -926.6,-1905.5 c -4.3,-8.9 -13.3,-14.1 -22.6,-14.1"
         style="fill:#ffffff;fill-opacity:1;fill-rule:nonzero;stroke:none"
         id="path164" /><path
         d="m 9038.22,26037.7 c -377.31,0 -487.05,217.4 -492.11,227.9 -6.04,12.5 -0.78,27.6 11.74,33.6 12.45,6 27.45,0.8 33.53,-11.6 5.22,-10.6 133.2,-258.1 611.01,-186.7 13.73,2.1 26.55,-7.4 28.61,-21.1 2.05,-13.8 -7.41,-26.6 -21.16,-28.6 -62.56,-9.4 -119.64,-13.5 -171.62,-13.5"
         style="fill:#dd4b9b;fill-opacity:1;fill-rule:nonzero;stroke:none"
         id="path166" /><path
         d="m 14602.5,21241.7 c -12.7,0 -23.6,9.6 -25,22.5 l -124.3,1195.3 c -1.4,13.8 8.6,26.2 22.4,27.6 13.8,1.4 26.2,-8.6 27.6,-22.4 l 124.4,-1195.3 c 1.4,-13.8 -8.6,-26.2 -22.4,-27.6 l -2.7,-0.1"
         style="fill:#dd4b9b;fill-opacity:1;fill-rule:nonzero;stroke:none"
         id="path168" /><path
         d="m 16316.8,22611.3 c -8,0 -15.9,3.9 -20.8,11 -7.9,11.5 -4.9,27.1 6.6,35 l 390.9,267 c 11.4,7.8 27.1,4.9 34.9,-6.6 7.9,-11.5 4.9,-27.1 -6.6,-35 l -390.8,-267 c -4.4,-2.9 -9.3,-4.4 -14.2,-4.4"
         style="fill:#dd4b9b;fill-opacity:1;fill-rule:nonzero;stroke:none"
         id="path170" /><path
         d="m 16401.5,22351.8 c -7.5,0 -15,3.4 -19.9,9.9 -8.5,11 -6.4,26.8 4.6,35.2 l 345,265.2 c 11,8.5 26.8,6.4 35.3,-4.6 8.5,-11 6.4,-26.8 -4.6,-35.3 l -345.1,-265.2 c -4.5,-3.5 -9.9,-5.2 -15.3,-5.2"
         style="fill:#dd4b9b;fill-opacity:1;fill-rule:nonzero;stroke:none"
         id="path172" /><path
         d="m 14540.4,17708.3 c -3.9,0 -7.8,0.9 -11.5,2.8 -12.3,6.3 -17.2,21.5 -10.9,33.8 l 521.8,1020.5 c 6.4,12.4 21.5,17.2 33.9,10.9 12.4,-6.3 17.3,-21.5 10.9,-33.8 L 14562.8,17722 c -4.5,-8.7 -13.3,-13.7 -22.4,-13.7"
         style="fill:#dd4b9b;fill-opacity:1;fill-rule:nonzero;stroke:none"
         id="path174" /><path
         d="m 17436.1,17771.2 h -0.1 l -2229.1,11.9 c -13.9,0.1 -25.1,11.4 -25.1,25.3 0.1,13.8 11.4,25 25.2,25 h 0.1 l 2229.2,-11.9 c 13.9,-0.1 25.1,-11.4 25,-25.3 -0.1,-13.9 -11.3,-25 -25.2,-25"
         style="fill:#dd4b9b;fill-opacity:1;fill-rule:nonzero;stroke:none"
         id="path176" /><path
         d="m 17527.5,17430.3 c -3,0 -6.1,0.5 -9.1,1.7 l -423.4,165.4 c -12.9,5.1 -19.3,19.7 -14.3,32.6 5.1,12.9 19.7,19.3 32.6,14.3 l 423.4,-165.4 c 13,-5.1 19.3,-19.7 14.3,-32.6 -3.9,-9.9 -13.4,-16 -23.5,-16"
         style="fill:#dd4b9b;fill-opacity:1;fill-rule:nonzero;stroke:none"
         id="path178" /><path
         d="m 17375.9,17213.9 c -3.9,0 -7.9,0.9 -11.7,2.9 l -568.4,299.1 c -12.3,6.5 -17,21.7 -10.5,34 6.5,12.2 21.7,17 34,10.5 l 568.4,-299.1 c 12.3,-6.5 17,-21.7 10.5,-34 -4.5,-8.5 -13.2,-13.4 -22.3,-13.4"
         style="fill:#dd4b9b;fill-opacity:1;fill-rule:nonzero;stroke:none"
         id="path180" /><path
         d="m 16308.6,24346.5 c -17.7,0 -32.5,13.8 -33.5,31.7 -29.2,517.9 141.8,1543.6 149.1,1587 3.1,18.3 20.4,30.7 38.7,27.5 18.2,-3 30.6,-20.3 27.5,-38.6 -1.8,-10.6 -177.1,-1061.8 -148.3,-1572.1 1.1,-18.5 -13.1,-34.4 -31.6,-35.4 l -1.9,-0.1"
         style="fill:#ce7b30;fill-opacity:1;fill-rule:nonzero;stroke:none"
         id="path182" /><path
         d="m 19686.9,24338.1 h -4162.1 c -23.2,0 -42,18.8 -42,42 0,23.1 18.8,41.9 42,41.9 h 4162.1 c 23.1,0 41.9,-18.8 41.9,-41.9 0,-23.2 -18.8,-42 -41.9,-42"
         style="fill:#080867;fill-opacity:1;fill-rule:nonzero;stroke:none"
         id="path184" /><path
         d="M 38000.1,4707.6 H 1900.02 c -23.14,0 -41.92,18.8 -41.92,41.9 0,23.2 18.78,42 41.92,42 H 38000.1 c 23.2,0 42,-18.8 42,-42 0,-23.1 -18.8,-41.9 -42,-41.9"
         style="fill:#080867;fill-opacity:1;fill-rule:nonzero;stroke:none"
         id="path186" /><path
         d="m 23401.8,19911.4 c -13.3,0 -24.4,10.4 -25.1,23.8 l -84.1,1500.9 c -0.7,13.9 9.9,25.8 23.7,26.6 13.8,0.6 25.8,-9.9 26.6,-23.7 l 84,-1501 c 0.8,-13.9 -9.8,-25.7 -23.7,-26.5 l -1.4,-0.1"
         style="fill:#dd4b9b;fill-opacity:1;fill-rule:nonzero;stroke:none"
         id="path188" /></g></g></svg>
